{
    "Figures": [
        {"type": "point", "x": 1, "y": 0, "color": "(255,0,255)"},
        {"type": "point", "x": 2, "y": 43},
        {"type": "point", "x": 22, "y": 42, "color": "(0,255,255)"},
        {"type": "point", "x": 320, "y": 420},
        {"type": "point", "x": 777, "y": 555, "color": "black"},
        {"type": "polygon", "points": [[20,50], [30,140], [50,180], [110,180], [3,390]], "color": "blue"},
        {"type": "polygon", "points": [[450, 100], [480, 300]], "color": "myColor"},
        {"type": "polygon", "points": [[480, 100], [450, 300]], "color": "mYred"},
        {"type": "rectangle", "x": 100, "y": 50, "width": 200, "height": 50},
        {"type": "rectangle", "x": 500, "y": 50, "width": 144, "height": 42, "color": "red"},
        {"type": "rectangle", "x": 740, "y": 300, "width": 42, "height": 143, "color": "green"},
        {"type": "square", "x": 150, "y": 100, "size": 80, "color": "(255,255,0)"},
        {"type": "square", "x": 444, "y": 444, "size": 125, "color": "(0,200,2)"},
        {"type": "square", "x": 444, "y": 444, "size": 120, "color": "(255,200,2)"},
        {"type": "point", "x": 444, "y": 444, "color": "black"},
        {"type": "circle", "x": 800, "y": 600, "radius": 40, "color": "#abcdef"},
        {"type": "circle", "x": 600, "y": 400, "radius": 55, "color": "#fdffdd"},
        {"type": "circle", "x": 600, "y": 400, "radius": 50, "color": "#000099"},
        {"type": "polygon", "points": [[300,300], [20, 200], [450,456]], "color": "#fedcba"}
    ],
    "Screen": {"width": 800, "height": 600, "bg_color": "#00a7dd", "fg_color": "red"},
    "Palette": {"red": "#ff0000", "mYred": "#aa0000", "blue": "#0000ff", "black": "#000000", "myColor": "#cdefab"}
}